com\binar\Service\MeanMedMod.class
com\binar\Interface\MeanMedModImp.class
com\binar\Service\MainMenuImp.class
com\binar\Service\Menuku.class
com\binar\Main.class
com\binar\Service\MenuSelesai.class
com\binar\Interface\MainMenu.class
